{
  "id": "6632170d6933fba273515801",
  "nodeId": "ari:cloud:trello::board/workspace/6632170df3d5a577d8516288/6632170d6933fba273515801",
  "name": "Aibraham Development",
  "desc": "",
  "descData": null,
  "closed": false,
  "dateClosed": null,
  "idOrganization": "6632170df3d5a577d8516288",
  "idEnterprise": null,
  "limits": {
    "attachments": {
      "perBoard": {
        "status": "ok",
        "disableAt": 36000,
        "warnAt": 28800
      },
      "perCard": {
        "status": "ok",
        "disableAt": 1000,
        "warnAt": 800
      }
    },
    "boards": {
      "totalMembersPerBoard": {
        "status": "ok",
        "disableAt": 1600,
        "warnAt": 1280
      },
      "totalAccessRequestsPerBoard": {
        "status": "ok",
        "disableAt": 4000,
        "warnAt": 3200
      }
    },
    "cards": {
      "openPerBoard": {
        "status": "ok",
        "disableAt": 5000,
        "warnAt": 4000
      },
      "openPerList": {
        "status": "ok",
        "disableAt": 5000,
        "warnAt": 4000
      },
      "totalPerBoard": {
        "status": "ok",
        "disableAt": 2000000,
        "warnAt": 1600000
      },
      "totalPerList": {
        "status": "ok",
        "disableAt": 1000000,
        "warnAt": 800000
      }
    },
    "checklists": {
      "perBoard": {
        "status": "ok",
        "disableAt": 1800000,
        "warnAt": 1440000
      },
      "perCard": {
        "status": "ok",
        "disableAt": 500,
        "warnAt": 400
      }
    },
    "checkItems": {
      "perChecklist": {
        "status": "ok",
        "disableAt": 200,
        "warnAt": 160
      }
    },
    "customFields": {
      "perBoard": {
        "status": "ok",
        "disableAt": 50,
        "warnAt": 40
      }
    },
    "customFieldOptions": {
      "perField": {
        "status": "ok",
        "disableAt": 50,
        "warnAt": 40
      }
    },
    "labels": {
      "perBoard": {
        "status": "ok",
        "disableAt": 1000,
        "warnAt": 800
      }
    },
    "lists": {
      "openPerBoard": {
        "status": "ok",
        "disableAt": 500,
        "warnAt": 400
      },
      "totalPerBoard": {
        "status": "ok",
        "disableAt": 3000,
        "warnAt": 2400
      }
    },
    "stickers": {
      "perCard": {
        "status": "ok",
        "disableAt": 70,
        "warnAt": 56
      }
    },
    "reactions": {
      "perAction": {
        "status": "ok",
        "disableAt": 900,
        "warnAt": 720
      },
      "uniquePerAction": {
        "status": "ok",
        "disableAt": 17,
        "warnAt": 14
      }
    }
  },
  "pinned": false,
  "starred": false,
  "url": "https://trello.com/b/LirAG5at/aibraham-development",
  "prefs": {
    "permissionLevel": "org",
    "hideVotes": false,
    "voting": "disabled",
    "comments": "members",
    "invitations": "members",
    "selfJoin": true,
    "cardCovers": true,
    "cardCounts": false,
    "isTemplate": false,
    "cardAging": "regular",
    "calendarFeedEnabled": false,
    "hiddenPluginBoardButtons": [],
    "switcherViews": [
      {
        "viewType": "Board",
        "enabled": true
      },
      {
        "viewType": "Table",
        "enabled": true
      },
      {
        "viewType": "Calendar",
        "enabled": false
      },
      {
        "viewType": "Dashboard",
        "enabled": false
      },
      {
        "viewType": "Timeline",
        "enabled": false
      },
      {
        "viewType": "Map",
        "enabled": false
      }
    ],
    "background": "pink",
    "backgroundColor": "#CD5A91",
    "backgroundImage": null,
    "backgroundTile": false,
    "backgroundBrightness": "dark",
    "sharedSourceUrl": null,
    "backgroundImageScaled": null,
    "backgroundBottomColor": "#CD5A91",
    "backgroundTopColor": "#CD5A91",
    "canBePublic": true,
    "canBeEnterprise": true,
    "canBeOrg": true,
    "canBePrivate": true,
    "canInvite": true
  },
  "shortLink": "LirAG5at",
  "subscribed": false,
  "labelNames": {
    "green": "",
    "yellow": "",
    "orange": "",
    "red": "",
    "purple": "",
    "blue": "",
    "sky": "",
    "lime": "",
    "pink": "",
    "black": "",
    "green_dark": "",
    "yellow_dark": "",
    "orange_dark": "",
    "red_dark": "",
    "purple_dark": "",
    "blue_dark": "",
    "sky_dark": "",
    "lime_dark": "",
    "pink_dark": "",
    "black_dark": "",
    "green_light": "",
    "yellow_light": "",
    "orange_light": "",
    "red_light": "",
    "purple_light": "",
    "blue_light": "",
    "sky_light": "",
    "lime_light": "",
    "pink_light": "",
    "black_light": ""
  },
  "powerUps": [],
  "dateLastActivity": "2024-05-05T22:57:34.826Z",
  "dateLastView": "2024-05-05T22:57:52.217Z",
  "shortUrl": "https://trello.com/b/LirAG5at",
  "idTags": [],
  "datePluginDisable": null,
  "creationMethod": null,
  "ixUpdate": "87",
  "templateGallery": null,
  "enterpriseOwned": false,
  "idBoardSource": null,
  "premiumFeatures": [
    "additionalBoardBackgrounds",
    "additionalStickers",
    "customBoardBackgrounds",
    "customEmoji",
    "customStickers",
    "plugins"
  ],
  "idMemberCreator": "663216c24ae102cc533836b8",
  "actions": [
    {
      "id": "66380edebb7717d250f99f21",
      "idMemberCreator": "663216c24ae102cc533836b8",
      "data": {
        "card": {
          "pos": 524290,
          "id": "66380df3d4cb9e1cbf2378e1",
          "name": "Re-design Propagation Page Funnel",
          "idShort": 5,
          "shortLink": "vjxBqhBP"
        },
        "old": {
          "pos": 196610
        },
        "board": {
          "id": "6632170d6933fba273515801",
          "name": "Aibraham Development",
          "shortLink": "LirAG5at"
        },
        "list": {
          "id": "6632170e01706c19228fa799",
          "name": "To do"
        }
      },
      "appCreator": null,
      "type": "updateCard",
      "date": "2024-05-05T22:57:34.841Z",
      "limits": null,
      "memberCreator": {
        "id": "663216c24ae102cc533836b8",
        "activityBlocked": false,
        "avatarHash": "c2e6da7b85b749b6e0d4257b1f86d935",
        "avatarUrl": "https://trello-members.s3.amazonaws.com/663216c24ae102cc533836b8/c2e6da7b85b749b6e0d4257b1f86d935",
        "fullName": "molnar.benedek01",
        "idMemberReferrer": null,
        "initials": "M",
        "nonPublic": {
          "fullName": "molnar.benedek01",
          "initials": "M",
          "avatarHash": null
        },
        "nonPublicAvailable": true,
        "username": "molnarbenedek01"
      }
    },
    {
      "id": "66380edafbadebc869a319ae",
      "idMemberCreator": "663216c24ae102cc533836b8",
      "data": {
        "card": {
          "idLabels": [
            "6632170d1dc51400eb9d417d"
          ],
          "id": "66380deb384fec1245a7f261",
          "name": "Payment Gateway Integration",
          "idShort": 4,
          "shortLink": "kTRpjJfr"
        },
        "old": {
          "idLabels": []
        },
        "board": {
          "id": "6632170d6933fba273515801",
          "name": "Aibraham Development",
          "shortLink": "LirAG5at"
        },
        "list": {
          "id": "6632170e01706c19228fa799",
          "name": "To do"
        }
      },
      "appCreator": null,
      "type": "updateCard",
      "date": "2024-05-05T22:57:30.617Z",
      "limits": null,
      "memberCreator": {
        "id": "663216c24ae102cc533836b8",
        "activityBlocked": false,
        "avatarHash": "c2e6da7b85b749b6e0d4257b1f86d935",
        "avatarUrl": "https://trello-members.s3.amazonaws.com/663216c24ae102cc533836b8/c2e6da7b85b749b6e0d4257b1f86d935",
        "fullName": "molnar.benedek01",
        "idMemberReferrer": null,
        "initials": "M",
        "nonPublic": {
          "fullName": "molnar.benedek01",
          "initials": "M",
          "avatarHash": null
        },
        "nonPublicAvailable": true,
        "username": "molnarbenedek01"
      }
    },
    {
      "id": "66380ed2d7e387cc4022ab81",
      "idMemberCreator": "663216c24ae102cc533836b8",
      "data": {
        "card": {
          "idLabels": [
            "6632170d1dc51400eb9d417d"
          ],
          "id": "66380e0793c3002187b96cff",
          "name": "Interactive User Guide",
          "idShort": 7,
          "shortLink": "slaFdGYz"
        },
        "old": {
          "idLabels": []
        },
        "board": {
          "id": "6632170d6933fba273515801",
          "name": "Aibraham Development",
          "shortLink": "LirAG5at"
        },
        "list": {
          "id": "6632170e01706c19228fa799",
          "name": "To do"
        }
      },
      "appCreator": null,
      "type": "updateCard",
      "date": "2024-05-05T22:57:22.740Z",
      "limits": null,
      "memberCreator": {
        "id": "663216c24ae102cc533836b8",
        "activityBlocked": false,
        "avatarHash": "c2e6da7b85b749b6e0d4257b1f86d935",
        "avatarUrl": "https://trello-members.s3.amazonaws.com/663216c24ae102cc533836b8/c2e6da7b85b749b6e0d4257b1f86d935",
        "fullName": "molnar.benedek01",
        "idMemberReferrer": null,
        "initials": "M",
        "nonPublic": {
          "fullName": "molnar.benedek01",
          "initials": "M",
          "avatarHash": null
        },
        "nonPublicAvailable": true,
        "username": "molnarbenedek01"
      }
    },
    {
      "id": "66380ec5efdc21c23c194eab",
      "idMemberCreator": "663216c24ae102cc533836b8",
      "data": {
        "card": {
          "idLabels": [
            "6632170d1dc51400eb9d417d"
          ],
          "id": "66380dfbdebe17f08631bfcb",
          "name": "Insert Legal Documents",
          "idShort": 6,
          "shortLink": "kYyuh2NL"
        },
        "old": {
          "idLabels": []
        },
        "board": {
          "id": "6632170d6933fba273515801",
          "name": "Aibraham Development",
          "shortLink": "LirAG5at"
        },
        "list": {
          "id": "6632170e01706c19228fa799",
          "name": "To do"
        }
      },
      "appCreator": null,
      "type": "updateCard",
      "date": "2024-05-05T22:57:09.400Z",
      "limits": null,
      "memberCreator": {
        "id": "663216c24ae102cc533836b8",
        "activityBlocked": false,
        "avatarHash": "c2e6da7b85b749b6e0d4257b1f86d935",
        "avatarUrl": "https://trello-members.s3.amazonaws.com/663216c24ae102cc533836b8/c2e6da7b85b749b6e0d4257b1f86d935",
        "fullName": "molnar.benedek01",
        "idMemberReferrer": null,
        "initials": "M",
        "nonPublic": {
          "fullName": "molnar.benedek01",
          "initials": "M",
          "avatarHash": null
        },
        "nonPublicAvailable": true,
        "username": "molnarbenedek01"
      }
    },
    {
      "id": "66380ea58088c6078d527aad",
      "idMemberCreator": "663216c24ae102cc533836b8",
      "data": {
        "card": {
          "id": "66380d8f06933a9003114abd",
          "idShort": 3,
          "shortLink": "8dBuz8qN"
        },
        "list": {
          "id": "6632170e01706c19228fa799",
          "name": "To do"
        },
        "board": {
          "id": "6632170d6933fba273515801",
          "name": "Aibraham Development",
          "shortLink": "LirAG5at"
        }
      },
      "appCreator": null,
      "type": "deleteCard",
      "date": "2024-05-05T22:56:37.746Z",
      "limits": null,
      "memberCreator": {
        "id": "663216c24ae102cc533836b8",
        "activityBlocked": false,
        "avatarHash": "c2e6da7b85b749b6e0d4257b1f86d935",
        "avatarUrl": "https://trello-members.s3.amazonaws.com/663216c24ae102cc533836b8/c2e6da7b85b749b6e0d4257b1f86d935",
        "fullName": "molnar.benedek01",
        "idMemberReferrer": null,
        "initials": "M",
        "nonPublic": {
          "fullName": "molnar.benedek01",
          "initials": "M",
          "avatarHash": null
        },
        "nonPublicAvailable": true,
        "username": "molnarbenedek01"
      }
    },
    {
      "id": "66380ea164a0f3ef05aab7b6",
      "idMemberCreator": "663216c24ae102cc533836b8",
      "data": {
        "card": {
          "closed": true,
          "id": "6632170e00e5294bf77937ee",
          "name": "Add payment for existing invoice",
          "idShort": 2,
          "shortLink": "iFrf3Q5Z"
        },
        "old": {
          "closed": false
        },
        "board": {
          "id": "6632170d6933fba273515801",
          "name": "Aibraham Development",
          "shortLink": "LirAG5at"
        },
        "list": {
          "id": "6632170e01706c19228fa799",
          "name": "To do"
        }
      },
      "appCreator": null,
      "type": "updateCard",
      "date": "2024-05-05T22:56:33.043Z",
      "limits": null,
      "memberCreator": {
        "id": "663216c24ae102cc533836b8",
        "activityBlocked": false,
        "avatarHash": "c2e6da7b85b749b6e0d4257b1f86d935",
        "avatarUrl": "https://trello-members.s3.amazonaws.com/663216c24ae102cc533836b8/c2e6da7b85b749b6e0d4257b1f86d935",
        "fullName": "molnar.benedek01",
        "idMemberReferrer": null,
        "initials": "M",
        "nonPublic": {
          "fullName": "molnar.benedek01",
          "initials": "M",
          "avatarHash": null
        },
        "nonPublicAvailable": true,
        "username": "molnarbenedek01"
      }
    },
    {
      "id": "66380e9718c3abb875d87b58",
      "idMemberCreator": "663216c24ae102cc533836b8",
      "data": {
        "card": {
          "desc": "As discussed in the analysis \\ref{paymentgateway}, the integration of a payment gateway wouldn't bring benefits to the prototype due to legal requirements, so successful payments were mocked for every request. This allowed us to test the application in its fullest form, including all functionalities, without external interference.\nWhen launching the application, the gateway would need to be integrated. Based on the analysis, although the application is prepared and ready for integration. The step of creating the payment link and redirecting the user to the correct URL needs to be added in two functions---activating the subscription with the subscription fee and paying the outstanding bills. While the chosen payment gateway, Barion, provides the best rates, achieving these rates requires installing a tracking tool called Barion Pixel. It is vendor-specific, which means the implementation of the prototype doesn't include it yet.",
          "id": "66380deb384fec1245a7f261",
          "name": "Payment Gateway Integration",
          "idShort": 4,
          "shortLink": "kTRpjJfr"
        },
        "old": {
          "desc": ""
        },
        "board": {
          "id": "6632170d6933fba273515801",
          "name": "Aibraham Development",
          "shortLink": "LirAG5at"
        },
        "list": {
          "id": "6632170e01706c19228fa799",
          "name": "To do"
        }
      },
      "appCreator": null,
      "type": "updateCard",
      "date": "2024-05-05T22:56:23.563Z",
      "limits": null,
      "memberCreator": {
        "id": "663216c24ae102cc533836b8",
        "activityBlocked": false,
        "avatarHash": "c2e6da7b85b749b6e0d4257b1f86d935",
        "avatarUrl": "https://trello-members.s3.amazonaws.com/663216c24ae102cc533836b8/c2e6da7b85b749b6e0d4257b1f86d935",
        "fullName": "molnar.benedek01",
        "idMemberReferrer": null,
        "initials": "M",
        "nonPublic": {
          "fullName": "molnar.benedek01",
          "initials": "M",
          "avatarHash": null
        },
        "nonPublicAvailable": true,
        "username": "molnarbenedek01"
      }
    },
    {
      "id": "66380e82925d83af5d7fd48b",
      "idMemberCreator": "663216c24ae102cc533836b8",
      "data": {
        "card": {
          "desc": "The current propagation page was part of testing the concept of the application. The highlight was on presenting some of the features, but most importantly on the integrated sales agent. Since the focus was on the integrated agent and testing the concept of the project, the propagation page didn't receive as much attention as a professional landing page should get for a business software.\nThe landing page features a top-down funnel presenting some of the key features of the application, with an option to contact us at the end of the infinite scroll page. The new design should include a call to action at the end with a connection to the application, including information about the prices and membership. The page itself should branch to different sub-branches further specifying specific uses of the application for specific needs based on the industry of the visitor.",
          "id": "66380df3d4cb9e1cbf2378e1",
          "name": "Re-design Propagation Page Funnel",
          "idShort": 5,
          "shortLink": "vjxBqhBP"
        },
        "old": {
          "desc": ""
        },
        "board": {
          "id": "6632170d6933fba273515801",
          "name": "Aibraham Development",
          "shortLink": "LirAG5at"
        },
        "list": {
          "id": "6632170e01706c19228fa799",
          "name": "To do"
        }
      },
      "appCreator": null,
      "type": "updateCard",
      "date": "2024-05-05T22:56:02.614Z",
      "limits": null,
      "memberCreator": {
        "id": "663216c24ae102cc533836b8",
        "activityBlocked": false,
        "avatarHash": "c2e6da7b85b749b6e0d4257b1f86d935",
        "avatarUrl": "https://trello-members.s3.amazonaws.com/663216c24ae102cc533836b8/c2e6da7b85b749b6e0d4257b1f86d935",
        "fullName": "molnar.benedek01",
        "idMemberReferrer": null,
        "initials": "M",
        "nonPublic": {
          "fullName": "molnar.benedek01",
          "initials": "M",
          "avatarHash": null
        },
        "nonPublicAvailable": true,
        "username": "molnarbenedek01"
      }
    },
    {
      "id": "66380e714b0f4259821488ef",
      "idMemberCreator": "663216c24ae102cc533836b8",
      "data": {
        "card": {
          "desc": "To ensure legal compliance and protect both the project, the organization behind it, and its users, it is advisable to upload certain legal documents to the platform. These documents should include General Terms and Conditions, a Privacy Policy, and any relevant Agreements or Contracts governing specific features or services like payment processing, subscription services, and intellectual properties.\nThe Privacy Policy should be expressively well-written, given the fact that it uses AI technology and may collect and analyze user data. It should mention the types of data collected, purposes for data usage, user consent mechanisms, including messages and custom functions. We need to be aware that although users are anonymous, they may potentially be identified based on messaging content, order ID, or email address provided in the conversation. By providing access to these legal documents, users can make informed decisions about their interactions, while the organization complies with EU and state laws.",
          "id": "66380dfbdebe17f08631bfcb",
          "name": "Insert Legal Documents",
          "idShort": 6,
          "shortLink": "kYyuh2NL"
        },
        "old": {
          "desc": ""
        },
        "board": {
          "id": "6632170d6933fba273515801",
          "name": "Aibraham Development",
          "shortLink": "LirAG5at"
        },
        "list": {
          "id": "6632170e01706c19228fa799",
          "name": "To do"
        }
      },
      "appCreator": null,
      "type": "updateCard",
      "date": "2024-05-05T22:55:45.102Z",
      "limits": null,
      "memberCreator": {
        "id": "663216c24ae102cc533836b8",
        "activityBlocked": false,
        "avatarHash": "c2e6da7b85b749b6e0d4257b1f86d935",
        "avatarUrl": "https://trello-members.s3.amazonaws.com/663216c24ae102cc533836b8/c2e6da7b85b749b6e0d4257b1f86d935",
        "fullName": "molnar.benedek01",
        "idMemberReferrer": null,
        "initials": "M",
        "nonPublic": {
          "fullName": "molnar.benedek01",
          "initials": "M",
          "avatarHash": null
        },
        "nonPublicAvailable": true,
        "username": "molnarbenedek01"
      }
    },
    {
      "id": "66380e60b68a5fea0108c7ea",
      "idMemberCreator": "663216c24ae102cc533836b8",
      "data": {
        "card": {
          "desc": "The prototype currently features a static guide to help the manager set up his first agent and teach him the maintenance around it. However, an interactive and visually more pleasing way of providing information could make the manager more engaged while providing specific information with the correct timing to help him remember the important steps.\nAn idea is, if the system could track the behavior of the user after registration, based on specific states and control whether the action was taken or not. The vertical menu has enough space to fill in hints or the next steps in disappearing hint boxes, while visiting the page or taking the action could result in a floating pop-up serving with more information.\nThe idea of a better user guide would need to be the topic of further analysis with proper testing to see which form of notifications and call-to-action interactions form the most understandable and convenient path for the user.",
          "id": "66380e0793c3002187b96cff",
          "name": "Interactive User Guide",
          "idShort": 7,
          "shortLink": "slaFdGYz"
        },
        "old": {
          "desc": ""
        },
        "board": {
          "id": "6632170d6933fba273515801",
          "name": "Aibraham Development",
          "shortLink": "LirAG5at"
        },
        "list": {
          "id": "6632170e01706c19228fa799",
          "name": "To do"
        }
      },
      "appCreator": null,
      "type": "updateCard",
      "date": "2024-05-05T22:55:28.227Z",
      "limits": null,
      "memberCreator": {
        "id": "663216c24ae102cc533836b8",
        "activityBlocked": false,
        "avatarHash": "c2e6da7b85b749b6e0d4257b1f86d935",
        "avatarUrl": "https://trello-members.s3.amazonaws.com/663216c24ae102cc533836b8/c2e6da7b85b749b6e0d4257b1f86d935",
        "fullName": "molnar.benedek01",
        "idMemberReferrer": null,
        "initials": "M",
        "nonPublic": {
          "fullName": "molnar.benedek01",
          "initials": "M",
          "avatarHash": null
        },
        "nonPublicAvailable": true,
        "username": "molnarbenedek01"
      }
    },
    {
      "id": "66380e44b6ee491d0cfd0af4",
      "idMemberCreator": "663216c24ae102cc533836b8",
      "data": {
        "card": {
          "desc": "The system uses the two-stage billing, where we charge the user for membership and bill them for the used tokens by their agents. Through usability testing, Jozef had an interesting question and suggestion regarding post-use billing. He mentioned that a pre-pay method, maybe in the form of credits, would be a safer option which could not be exploited later on and could be easier from a legal standpoint too.\nI appreciated the constructive criticism and found the idea interesting and beneficial, however, thorough analysis must be performed before judgment. From a technical perspective, minor changes would be required, since the system tracks the used tokens it may be used as a wallet which tracks the leftover tokens after each use, and the number doesn't reset when the bill is paid but the user needs to buy the tokens beforehand.",
          "id": "66380e0d1f7dd54fffebcc0b",
          "name": "Credit System",
          "idShort": 8,
          "shortLink": "6erLW9uL"
        },
        "old": {
          "desc": ""
        },
        "board": {
          "id": "6632170d6933fba273515801",
          "name": "Aibraham Development",
          "shortLink": "LirAG5at"
        },
        "list": {
          "id": "6632170e01706c19228fa799",
          "name": "To do"
        }
      },
      "appCreator": null,
      "type": "updateCard",
      "date": "2024-05-05T22:55:00.919Z",
      "limits": null,
      "memberCreator": {
        "id": "663216c24ae102cc533836b8",
        "activityBlocked": false,
        "avatarHash": "c2e6da7b85b749b6e0d4257b1f86d935",
        "avatarUrl": "https://trello-members.s3.amazonaws.com/663216c24ae102cc533836b8/c2e6da7b85b749b6e0d4257b1f86d935",
        "fullName": "molnar.benedek01",
        "idMemberReferrer": null,
        "initials": "M",
        "nonPublic": {
          "fullName": "molnar.benedek01",
          "initials": "M",
          "avatarHash": null
        },
        "nonPublicAvailable": true,
        "username": "molnarbenedek01"
      }
    },
    {
      "id": "66380e27901e297f99877580",
      "idMemberCreator": "663216c24ae102cc533836b8",
      "data": {
        "card": {
          "desc": "The agents provide live interaction with the user, however, sometimes the niche of the business doesn't validate the use of such a tool. This means users either get in touch via phone or via email. However, the initial contact and frequently asked questions remain the same, similarly to the live interaction.\nWhat if our agents could respond to email conversations? By creating a contact form component connected to the agent system, the agents may be able to fetch the emails, evaluate, and reply to the emails accordingly via email obviously. This way it would have the same benefits as a live interaction, however, the effect would increase even more due to the new connected platform. It would make the human workforce stress less, who would be able to focus their power on more important tasks or more progressed clients.\n Thanks to the system's modularity, only a few changes would need to be made to activate such a function, however, thorough testing would need to be realized, due to the fact that there is no live feedback in case anything goes wrong, which would imply lost messages or lost answers.",
          "id": "66380e0f7fef8efc4acbb5c2",
          "name": "Initial Contact Through Forms",
          "idShort": 9,
          "shortLink": "IDvS17NC"
        },
        "old": {
          "desc": ""
        },
        "board": {
          "id": "6632170d6933fba273515801",
          "name": "Aibraham Development",
          "shortLink": "LirAG5at"
        },
        "list": {
          "id": "6632170e01706c19228fa799",
          "name": "To do"
        }
      },
      "appCreator": null,
      "type": "updateCard",
      "date": "2024-05-05T22:54:31.400Z",
      "limits": null,
      "memberCreator": {
        "id": "663216c24ae102cc533836b8",
        "activityBlocked": false,
        "avatarHash": "c2e6da7b85b749b6e0d4257b1f86d935",
        "avatarUrl": "https://trello-members.s3.amazonaws.com/663216c24ae102cc533836b8/c2e6da7b85b749b6e0d4257b1f86d935",
        "fullName": "molnar.benedek01",
        "idMemberReferrer": null,
        "initials": "M",
        "nonPublic": {
          "fullName": "molnar.benedek01",
          "initials": "M",
          "avatarHash": null
        },
        "nonPublicAvailable": true,
        "username": "molnarbenedek01"
      }
    },
    {
      "id": "66380e0f7fef8efc4acbb5cb",
      "idMemberCreator": "663216c24ae102cc533836b8",
      "data": {
        "card": {
          "id": "66380e0f7fef8efc4acbb5c2",
          "name": "Initial Contact Through Forms",
          "idShort": 9,
          "shortLink": "IDvS17NC"
        },
        "list": {
          "id": "6632170e01706c19228fa799",
          "name": "To do"
        },
        "board": {
          "id": "6632170d6933fba273515801",
          "name": "Aibraham Development",
          "shortLink": "LirAG5at"
        }
      },
      "appCreator": null,
      "type": "createCard",
      "date": "2024-05-05T22:54:07.114Z",
      "limits": null,
      "memberCreator": {
        "id": "663216c24ae102cc533836b8",
        "activityBlocked": false,
        "avatarHash": "c2e6da7b85b749b6e0d4257b1f86d935",
        "avatarUrl": "https://trello-members.s3.amazonaws.com/663216c24ae102cc533836b8/c2e6da7b85b749b6e0d4257b1f86d935",
        "fullName": "molnar.benedek01",
        "idMemberReferrer": null,
        "initials": "M",
        "nonPublic": {
          "fullName": "molnar.benedek01",
          "initials": "M",
          "avatarHash": null
        },
        "nonPublicAvailable": true,
        "username": "molnarbenedek01"
      }
    },
    {
      "id": "66380e0d1f7dd54fffebcc14",
      "idMemberCreator": "663216c24ae102cc533836b8",
      "data": {
        "card": {
          "id": "66380e0d1f7dd54fffebcc0b",
          "name": "Credit System",
          "idShort": 8,
          "shortLink": "6erLW9uL"
        },
        "list": {
          "id": "6632170e01706c19228fa799",
          "name": "To do"
        },
        "board": {
          "id": "6632170d6933fba273515801",
          "name": "Aibraham Development",
          "shortLink": "LirAG5at"
        }
      },
      "appCreator": null,
      "type": "createCard",
      "date": "2024-05-05T22:54:05.053Z",
      "limits": null,
      "memberCreator": {
        "id": "663216c24ae102cc533836b8",
        "activityBlocked": false,
        "avatarHash": "c2e6da7b85b749b6e0d4257b1f86d935",
        "avatarUrl": "https://trello-members.s3.amazonaws.com/663216c24ae102cc533836b8/c2e6da7b85b749b6e0d4257b1f86d935",
        "fullName": "molnar.benedek01",
        "idMemberReferrer": null,
        "initials": "M",
        "nonPublic": {
          "fullName": "molnar.benedek01",
          "initials": "M",
          "avatarHash": null
        },
        "nonPublicAvailable": true,
        "username": "molnarbenedek01"
      }
    },
    {
      "id": "66380e0793c3002187b96d08",
      "idMemberCreator": "663216c24ae102cc533836b8",
      "data": {
        "card": {
          "id": "66380e0793c3002187b96cff",
          "name": "Interactive User Guide",
          "idShort": 7,
          "shortLink": "slaFdGYz"
        },
        "list": {
          "id": "6632170e01706c19228fa799",
          "name": "To do"
        },
        "board": {
          "id": "6632170d6933fba273515801",
          "name": "Aibraham Development",
          "shortLink": "LirAG5at"
        }
      },
      "appCreator": null,
      "type": "createCard",
      "date": "2024-05-05T22:53:59.180Z",
      "limits": null,
      "memberCreator": {
        "id": "663216c24ae102cc533836b8",
        "activityBlocked": false,
        "avatarHash": "c2e6da7b85b749b6e0d4257b1f86d935",
        "avatarUrl": "https://trello-members.s3.amazonaws.com/663216c24ae102cc533836b8/c2e6da7b85b749b6e0d4257b1f86d935",
        "fullName": "molnar.benedek01",
        "idMemberReferrer": null,
        "initials": "M",
        "nonPublic": {
          "fullName": "molnar.benedek01",
          "initials": "M",
          "avatarHash": null
        },
        "nonPublicAvailable": true,
        "username": "molnarbenedek01"
      }
    },
    {
      "id": "66380dfbdebe17f08631bfd4",
      "idMemberCreator": "663216c24ae102cc533836b8",
      "data": {
        "card": {
          "id": "66380dfbdebe17f08631bfcb",
          "name": "Insert Legal Documents",
          "idShort": 6,
          "shortLink": "kYyuh2NL"
        },
        "list": {
          "id": "6632170e01706c19228fa799",
          "name": "To do"
        },
        "board": {
          "id": "6632170d6933fba273515801",
          "name": "Aibraham Development",
          "shortLink": "LirAG5at"
        }
      },
      "appCreator": null,
      "type": "createCard",
      "date": "2024-05-05T22:53:47.125Z",
      "limits": null,
      "memberCreator": {
        "id": "663216c24ae102cc533836b8",
        "activityBlocked": false,
        "avatarHash": "c2e6da7b85b749b6e0d4257b1f86d935",
        "avatarUrl": "https://trello-members.s3.amazonaws.com/663216c24ae102cc533836b8/c2e6da7b85b749b6e0d4257b1f86d935",
        "fullName": "molnar.benedek01",
        "idMemberReferrer": null,
        "initials": "M",
        "nonPublic": {
          "fullName": "molnar.benedek01",
          "initials": "M",
          "avatarHash": null
        },
        "nonPublicAvailable": true,
        "username": "molnarbenedek01"
      }
    },
    {
      "id": "66380df3d4cb9e1cbf2378ea",
      "idMemberCreator": "663216c24ae102cc533836b8",
      "data": {
        "card": {
          "id": "66380df3d4cb9e1cbf2378e1",
          "name": "Re-design Propagation Page Funnel",
          "idShort": 5,
          "shortLink": "vjxBqhBP"
        },
        "list": {
          "id": "6632170e01706c19228fa799",
          "name": "To do"
        },
        "board": {
          "id": "6632170d6933fba273515801",
          "name": "Aibraham Development",
          "shortLink": "LirAG5at"
        }
      },
      "appCreator": null,
      "type": "createCard",
      "date": "2024-05-05T22:53:39.497Z",
      "limits": null,
      "memberCreator": {
        "id": "663216c24ae102cc533836b8",
        "activityBlocked": false,
        "avatarHash": "c2e6da7b85b749b6e0d4257b1f86d935",
        "avatarUrl": "https://trello-members.s3.amazonaws.com/663216c24ae102cc533836b8/c2e6da7b85b749b6e0d4257b1f86d935",
        "fullName": "molnar.benedek01",
        "idMemberReferrer": null,
        "initials": "M",
        "nonPublic": {
          "fullName": "molnar.benedek01",
          "initials": "M",
          "avatarHash": null
        },
        "nonPublicAvailable": true,
        "username": "molnarbenedek01"
      }
    },
    {
      "id": "66380deb384fec1245a7f26a",
      "idMemberCreator": "663216c24ae102cc533836b8",
      "data": {
        "card": {
          "id": "66380deb384fec1245a7f261",
          "name": "Payment Gateway Integration",
          "idShort": 4,
          "shortLink": "kTRpjJfr"
        },
        "list": {
          "id": "6632170e01706c19228fa799",
          "name": "To do"
        },
        "board": {
          "id": "6632170d6933fba273515801",
          "name": "Aibraham Development",
          "shortLink": "LirAG5at"
        }
      },
      "appCreator": null,
      "type": "createCard",
      "date": "2024-05-05T22:53:31.154Z",
      "limits": null,
      "memberCreator": {
        "id": "663216c24ae102cc533836b8",
        "activityBlocked": false,
        "avatarHash": "c2e6da7b85b749b6e0d4257b1f86d935",
        "avatarUrl": "https://trello-members.s3.amazonaws.com/663216c24ae102cc533836b8/c2e6da7b85b749b6e0d4257b1f86d935",
        "fullName": "molnar.benedek01",
        "idMemberReferrer": null,
        "initials": "M",
        "nonPublic": {
          "fullName": "molnar.benedek01",
          "initials": "M",
          "avatarHash": null
        },
        "nonPublicAvailable": true,
        "username": "molnarbenedek01"
      }
    },
    {
      "id": "66380da73ff48b7aafe2dd81",
      "idMemberCreator": "663216c24ae102cc533836b8",
      "data": {
        "card": {
          "id": "6632170eac4059fd20bb521f",
          "idShort": 1,
          "shortLink": "1WcCowZb"
        },
        "list": {
          "id": "6632170e01706c19228fa799",
          "name": "To do"
        },
        "board": {
          "id": "6632170d6933fba273515801",
          "name": "Aibraham Development",
          "shortLink": "LirAG5at"
        }
      },
      "appCreator": null,
      "type": "deleteCard",
      "date": "2024-05-05T22:52:23.028Z",
      "limits": null,
      "memberCreator": {
        "id": "663216c24ae102cc533836b8",
        "activityBlocked": false,
        "avatarHash": "c2e6da7b85b749b6e0d4257b1f86d935",
        "avatarUrl": "https://trello-members.s3.amazonaws.com/663216c24ae102cc533836b8/c2e6da7b85b749b6e0d4257b1f86d935",
        "fullName": "molnar.benedek01",
        "idMemberReferrer": null,
        "initials": "M",
        "nonPublic": {
          "fullName": "molnar.benedek01",
          "initials": "M",
          "avatarHash": null
        },
        "nonPublicAvailable": true,
        "username": "molnarbenedek01"
      }
    },
    {
      "id": "6632170f00e5294bf77937f9",
      "idMemberCreator": "663216c24ae102cc533836b8",
      "data": {
        "card": {
          "id": "6632170e00e5294bf77937ee",
          "name": "Add payment for existing invoice",
          "idShort": 2,
          "shortLink": "iFrf3Q5Z"
        },
        "list": {
          "id": "6632170e01706c19228fa799",
          "name": "To do"
        },
        "board": {
          "id": "6632170d6933fba273515801",
          "name": "Aibraham Development",
          "shortLink": "LirAG5at"
        }
      },
      "appCreator": null,
      "type": "createCard",
      "date": "2024-05-01T10:18:55.023Z",
      "limits": null,
      "memberCreator": {
        "id": "663216c24ae102cc533836b8",
        "activityBlocked": false,
        "avatarHash": "c2e6da7b85b749b6e0d4257b1f86d935",
        "avatarUrl": "https://trello-members.s3.amazonaws.com/663216c24ae102cc533836b8/c2e6da7b85b749b6e0d4257b1f86d935",
        "fullName": "molnar.benedek01",
        "idMemberReferrer": null,
        "initials": "M",
        "nonPublic": {
          "fullName": "molnar.benedek01",
          "initials": "M",
          "avatarHash": null
        },
        "nonPublicAvailable": true,
        "username": "molnarbenedek01"
      }
    },
    {
      "id": "6632170e0a1056ae90bf1b83",
      "idMemberCreator": "663216c24ae102cc533836b8",
      "data": {
        "list": {
          "id": "6632170e0a1056ae90bf1b7f",
          "name": "Doing"
        },
        "board": {
          "id": "6632170d6933fba273515801",
          "name": "Aibraham Development",
          "shortLink": "LirAG5at"
        }
      },
      "appCreator": null,
      "type": "createList",
      "date": "2024-05-01T10:18:54.463Z",
      "limits": null,
      "memberCreator": {
        "id": "663216c24ae102cc533836b8",
        "activityBlocked": false,
        "avatarHash": "c2e6da7b85b749b6e0d4257b1f86d935",
        "avatarUrl": "https://trello-members.s3.amazonaws.com/663216c24ae102cc533836b8/c2e6da7b85b749b6e0d4257b1f86d935",
        "fullName": "molnar.benedek01",
        "idMemberReferrer": null,
        "initials": "M",
        "nonPublic": {
          "fullName": "molnar.benedek01",
          "initials": "M",
          "avatarHash": null
        },
        "nonPublicAvailable": true,
        "username": "molnarbenedek01"
      }
    },
    {
      "id": "6632170e01706c19228fa79d",
      "idMemberCreator": "663216c24ae102cc533836b8",
      "data": {
        "list": {
          "id": "6632170e01706c19228fa799",
          "name": "To do"
        },
        "board": {
          "id": "6632170d6933fba273515801",
          "name": "Aibraham Development",
          "shortLink": "LirAG5at"
        }
      },
      "appCreator": null,
      "type": "createList",
      "date": "2024-05-01T10:18:54.353Z",
      "limits": null,
      "memberCreator": {
        "id": "663216c24ae102cc533836b8",
        "activityBlocked": false,
        "avatarHash": "c2e6da7b85b749b6e0d4257b1f86d935",
        "avatarUrl": "https://trello-members.s3.amazonaws.com/663216c24ae102cc533836b8/c2e6da7b85b749b6e0d4257b1f86d935",
        "fullName": "molnar.benedek01",
        "idMemberReferrer": null,
        "initials": "M",
        "nonPublic": {
          "fullName": "molnar.benedek01",
          "initials": "M",
          "avatarHash": null
        },
        "nonPublicAvailable": true,
        "username": "molnarbenedek01"
      }
    },
    {
      "id": "6632170e9781b18fe7d9c702",
      "idMemberCreator": "663216c24ae102cc533836b8",
      "data": {
        "list": {
          "id": "6632170e9781b18fe7d9c6fe",
          "name": "Done"
        },
        "board": {
          "id": "6632170d6933fba273515801",
          "name": "Aibraham Development",
          "shortLink": "LirAG5at"
        }
      },
      "appCreator": null,
      "type": "createList",
      "date": "2024-05-01T10:18:54.243Z",
      "limits": null,
      "memberCreator": {
        "id": "663216c24ae102cc533836b8",
        "activityBlocked": false,
        "avatarHash": "c2e6da7b85b749b6e0d4257b1f86d935",
        "avatarUrl": "https://trello-members.s3.amazonaws.com/663216c24ae102cc533836b8/c2e6da7b85b749b6e0d4257b1f86d935",
        "fullName": "molnar.benedek01",
        "idMemberReferrer": null,
        "initials": "M",
        "nonPublic": {
          "fullName": "molnar.benedek01",
          "initials": "M",
          "avatarHash": null
        },
        "nonPublicAvailable": true,
        "username": "molnarbenedek01"
      }
    },
    {
      "id": "6632170d6933fba273515835",
      "idMemberCreator": "663216c24ae102cc533836b8",
      "data": {
        "board": {
          "id": "6632170d6933fba273515801",
          "name": "Aibraham Development",
          "shortLink": "LirAG5at"
        },
        "organization": {
          "id": "6632170df3d5a577d8516288",
          "name": "Trello Workspace"
        }
      },
      "appCreator": null,
      "type": "addToOrganizationBoard",
      "date": "2024-05-01T10:18:53.967Z",
      "limits": null,
      "memberCreator": {
        "id": "663216c24ae102cc533836b8",
        "activityBlocked": false,
        "avatarHash": "c2e6da7b85b749b6e0d4257b1f86d935",
        "avatarUrl": "https://trello-members.s3.amazonaws.com/663216c24ae102cc533836b8/c2e6da7b85b749b6e0d4257b1f86d935",
        "fullName": "molnar.benedek01",
        "idMemberReferrer": null,
        "initials": "M",
        "nonPublic": {
          "fullName": "molnar.benedek01",
          "initials": "M",
          "avatarHash": null
        },
        "nonPublicAvailable": true,
        "username": "molnarbenedek01"
      }
    },
    {
      "id": "6632170d6933fba273515832",
      "idMemberCreator": "663216c24ae102cc533836b8",
      "data": {
        "board": {
          "id": "6632170d6933fba273515801",
          "name": "Aibraham Development",
          "shortLink": "LirAG5at"
        }
      },
      "appCreator": null,
      "type": "createBoard",
      "date": "2024-05-01T10:18:53.964Z",
      "limits": null,
      "memberCreator": {
        "id": "663216c24ae102cc533836b8",
        "activityBlocked": false,
        "avatarHash": "c2e6da7b85b749b6e0d4257b1f86d935",
        "avatarUrl": "https://trello-members.s3.amazonaws.com/663216c24ae102cc533836b8/c2e6da7b85b749b6e0d4257b1f86d935",
        "fullName": "molnar.benedek01",
        "idMemberReferrer": null,
        "initials": "M",
        "nonPublic": {
          "fullName": "molnar.benedek01",
          "initials": "M",
          "avatarHash": null
        },
        "nonPublicAvailable": true,
        "username": "molnarbenedek01"
      }
    }
  ],
  "cards": [
    {
      "id": "6632170e00e5294bf77937ee",
      "address": null,
      "badges": {
        "attachmentsByType": {
          "trello": {
            "board": 0,
            "card": 0
          }
        },
        "location": false,
        "votes": 0,
        "viewingMemberVoted": false,
        "subscribed": false,
        "fogbugz": "",
        "checkItems": 0,
        "checkItemsChecked": 0,
        "checkItemsEarliestDue": null,
        "comments": 0,
        "attachments": 0,
        "description": false,
        "due": null,
        "dueComplete": false,
        "start": null
      },
      "checkItemStates": [],
      "closed": true,
      "coordinates": null,
      "creationMethod": null,
      "dueComplete": false,
      "dateLastActivity": "2024-05-05T22:56:33.025Z",
      "desc": "",
      "descData": {
        "emoji": {

        }
      },
      "due": null,
      "dueReminder": null,
      "email": "molnarbenedek+32e1dr1a7l2rt752u9k+32e1dz8133604qnywha+1ai3n4o067@boards.trello.com",
      "idBoard": "6632170d6933fba273515801",
      "idChecklists": [],
      "idLabels": [],
      "idList": "6632170e01706c19228fa799",
      "idMembers": [],
      "idMembersVoted": [],
      "idOrganization": "6632170df3d5a577d8516288",
      "idShort": 2,
      "idAttachmentCover": null,
      "labels": [],
      "limits": {
        "attachments": {
          "perCard": {
            "status": "ok",
            "disableAt": 1000,
            "warnAt": 800
          }
        },
        "checklists": {
          "perCard": {
            "status": "ok",
            "disableAt": 500,
            "warnAt": 400
          }
        },
        "stickers": {
          "perCard": {
            "status": "ok",
            "disableAt": 70,
            "warnAt": 56
          }
        }
      },
      "locationName": null,
      "manualCoverAttachment": false,
      "name": "Add payment for existing invoice",
      "nodeId": "ari:cloud:trello::card/workspace/6632170df3d5a577d8516288/6632170e00e5294bf77937ee",
      "pos": 1,
      "shortLink": "iFrf3Q5Z",
      "shortUrl": "https://trello.com/c/iFrf3Q5Z",
      "staticMapUrl": null,
      "start": null,
      "subscribed": false,
      "url": "https://trello.com/c/iFrf3Q5Z/2-add-payment-for-existing-invoice",
      "cover": {
        "idAttachment": null,
        "color": null,
        "idUploadedBackground": null,
        "size": "normal",
        "brightness": "dark",
        "idPlugin": null
      },
      "isTemplate": false,
      "cardRole": null,
      "attachments": [],
      "pluginData": [],
      "customFieldItems": []
    },
    {
      "id": "66380deb384fec1245a7f261",
      "address": null,
      "badges": {
        "attachmentsByType": {
          "trello": {
            "board": 0,
            "card": 0
          }
        },
        "location": false,
        "votes": 0,
        "viewingMemberVoted": false,
        "subscribed": false,
        "fogbugz": "",
        "checkItems": 0,
        "checkItemsChecked": 0,
        "checkItemsEarliestDue": null,
        "comments": 0,
        "attachments": 0,
        "description": true,
        "due": null,
        "dueComplete": false,
        "start": null
      },
      "checkItemStates": [],
      "closed": false,
      "coordinates": null,
      "creationMethod": null,
      "dueComplete": false,
      "dateLastActivity": "2024-05-05T22:57:30.580Z",
      "desc": "As discussed in the analysis \\ref{paymentgateway}, the integration of a payment gateway wouldn't bring benefits to the prototype due to legal requirements, so successful payments were mocked for every request. This allowed us to test the application in its fullest form, including all functionalities, without external interference.\nWhen launching the application, the gateway would need to be integrated. Based on the analysis, although the application is prepared and ready for integration. The step of creating the payment link and redirecting the user to the correct URL needs to be added in two functions---activating the subscription with the subscription fee and paying the outstanding bills. While the chosen payment gateway, Barion, provides the best rates, achieving these rates requires installing a tracking tool called Barion Pixel. It is vendor-specific, which means the implementation of the prototype doesn't include it yet.",
      "descData": {
        "emoji": {

        }
      },
      "due": null,
      "dueReminder": null,
      "email": "molnarbenedek+32e1dr1a7l2rt752u9k+32ey04rmyhgzn4q2lb5+1i7ontk8bu@boards.trello.com",
      "idBoard": "6632170d6933fba273515801",
      "idChecklists": [],
      "idLabels": [
        "6632170d1dc51400eb9d417d"
      ],
      "idList": "6632170e01706c19228fa799",
      "idMembers": [],
      "idMembersVoted": [],
      "idOrganization": "6632170df3d5a577d8516288",
      "idShort": 4,
      "idAttachmentCover": null,
      "labels": [
        {
          "id": "6632170d1dc51400eb9d417d",
          "idBoard": "6632170d6933fba273515801",
          "name": "",
          "color": "red",
          "uses": 3
        }
      ],
      "limits": {
        "attachments": {
          "perCard": {
            "status": "ok",
            "disableAt": 1000,
            "warnAt": 800
          }
        },
        "checklists": {
          "perCard": {
            "status": "ok",
            "disableAt": 500,
            "warnAt": 400
          }
        },
        "stickers": {
          "perCard": {
            "status": "ok",
            "disableAt": 70,
            "warnAt": 56
          }
        }
      },
      "locationName": null,
      "manualCoverAttachment": false,
      "name": "Payment Gateway Integration",
      "nodeId": "ari:cloud:trello::card/workspace/6632170df3d5a577d8516288/66380deb384fec1245a7f261",
      "pos": 131074,
      "shortLink": "kTRpjJfr",
      "shortUrl": "https://trello.com/c/kTRpjJfr",
      "staticMapUrl": null,
      "start": null,
      "subscribed": false,
      "url": "https://trello.com/c/kTRpjJfr/4-payment-gateway-integration",
      "cover": {
        "idAttachment": null,
        "color": null,
        "idUploadedBackground": null,
        "size": "normal",
        "brightness": "dark",
        "idPlugin": null
      },
      "isTemplate": false,
      "cardRole": null,
      "attachments": [],
      "pluginData": [],
      "customFieldItems": []
    },
    {
      "id": "66380dfbdebe17f08631bfcb",
      "address": null,
      "badges": {
        "attachmentsByType": {
          "trello": {
            "board": 0,
            "card": 0
          }
        },
        "location": false,
        "votes": 0,
        "viewingMemberVoted": false,
        "subscribed": false,
        "fogbugz": "",
        "checkItems": 0,
        "checkItemsChecked": 0,
        "checkItemsEarliestDue": null,
        "comments": 0,
        "attachments": 0,
        "description": true,
        "due": null,
        "dueComplete": false,
        "start": null
      },
      "checkItemStates": [],
      "closed": false,
      "coordinates": null,
      "creationMethod": null,
      "dueComplete": false,
      "dateLastActivity": "2024-05-05T22:57:09.374Z",
      "desc": "To ensure legal compliance and protect both the project, the organization behind it, and its users, it is advisable to upload certain legal documents to the platform. These documents should include General Terms and Conditions, a Privacy Policy, and any relevant Agreements or Contracts governing specific features or services like payment processing, subscription services, and intellectual properties.\nThe Privacy Policy should be expressively well-written, given the fact that it uses AI technology and may collect and analyze user data. It should mention the types of data collected, purposes for data usage, user consent mechanisms, including messages and custom functions. We need to be aware that although users are anonymous, they may potentially be identified based on messaging content, order ID, or email address provided in the conversation. By providing access to these legal documents, users can make informed decisions about their interactions, while the organization complies with EU and state laws.",
      "descData": {
        "emoji": {

        }
      },
      "due": null,
      "dueReminder": null,
      "email": "molnarbenedek+32e1dr1a7l2rt752u9k+32ey06kggtl44acu9jf+11y21sn0bg@boards.trello.com",
      "idBoard": "6632170d6933fba273515801",
      "idChecklists": [],
      "idLabels": [
        "6632170d1dc51400eb9d417d"
      ],
      "idList": "6632170e01706c19228fa799",
      "idMembers": [],
      "idMembersVoted": [],
      "idOrganization": "6632170df3d5a577d8516288",
      "idShort": 6,
      "idAttachmentCover": null,
      "labels": [
        {
          "id": "6632170d1dc51400eb9d417d",
          "idBoard": "6632170d6933fba273515801",
          "name": "",
          "color": "red",
          "uses": 3
        }
      ],
      "limits": {
        "attachments": {
          "perCard": {
            "status": "ok",
            "disableAt": 1000,
            "warnAt": 800
          }
        },
        "checklists": {
          "perCard": {
            "status": "ok",
            "disableAt": 500,
            "warnAt": 400
          }
        },
        "stickers": {
          "perCard": {
            "status": "ok",
            "disableAt": 70,
            "warnAt": 56
          }
        }
      },
      "locationName": null,
      "manualCoverAttachment": false,
      "name": "Insert Legal Documents",
      "nodeId": "ari:cloud:trello::card/workspace/6632170df3d5a577d8516288/66380dfbdebe17f08631bfcb",
      "pos": 262146,
      "shortLink": "kYyuh2NL",
      "shortUrl": "https://trello.com/c/kYyuh2NL",
      "staticMapUrl": null,
      "start": null,
      "subscribed": false,
      "url": "https://trello.com/c/kYyuh2NL/6-insert-legal-documents",
      "cover": {
        "idAttachment": null,
        "color": null,
        "idUploadedBackground": null,
        "size": "normal",
        "brightness": "dark",
        "idPlugin": null
      },
      "isTemplate": false,
      "cardRole": null,
      "attachments": [],
      "pluginData": [],
      "customFieldItems": []
    },
    {
      "id": "66380e0793c3002187b96cff",
      "address": null,
      "badges": {
        "attachmentsByType": {
          "trello": {
            "board": 0,
            "card": 0
          }
        },
        "location": false,
        "votes": 0,
        "viewingMemberVoted": false,
        "subscribed": false,
        "fogbugz": "",
        "checkItems": 0,
        "checkItemsChecked": 0,
        "checkItemsEarliestDue": null,
        "comments": 0,
        "attachments": 0,
        "description": true,
        "due": null,
        "dueComplete": false,
        "start": null
      },
      "checkItemStates": [],
      "closed": false,
      "coordinates": null,
      "creationMethod": null,
      "dueComplete": false,
      "dateLastActivity": "2024-05-05T22:57:22.710Z",
      "desc": "The prototype currently features a static guide to help the manager set up his first agent and teach him the maintenance around it. However, an interactive and visually more pleasing way of providing information could make the manager more engaged while providing specific information with the correct timing to help him remember the important steps.\nAn idea is, if the system could track the behavior of the user after registration, based on specific states and control whether the action was taken or not. The vertical menu has enough space to fill in hints or the next steps in disappearing hint boxes, while visiting the page or taking the action could result in a floating pop-up serving with more information.\nThe idea of a better user guide would need to be the topic of further analysis with proper testing to see which form of notifications and call-to-action interactions form the most understandable and convenient path for the user.",
      "descData": {
        "emoji": {

        }
      },
      "due": null,
      "dueReminder": null,
      "email": "molnarbenedek+32e1dr1a7l2rt752u9k+32ey07u17qfnz54m5fj+0gqkmlghoa@boards.trello.com",
      "idBoard": "6632170d6933fba273515801",
      "idChecklists": [],
      "idLabels": [
        "6632170d1dc51400eb9d417d"
      ],
      "idList": "6632170e01706c19228fa799",
      "idMembers": [],
      "idMembersVoted": [],
      "idOrganization": "6632170df3d5a577d8516288",
      "idShort": 7,
      "idAttachmentCover": null,
      "labels": [
        {
          "id": "6632170d1dc51400eb9d417d",
          "idBoard": "6632170d6933fba273515801",
          "name": "",
          "color": "red",
          "uses": 3
        }
      ],
      "limits": {
        "attachments": {
          "perCard": {
            "status": "ok",
            "disableAt": 1000,
            "warnAt": 800
          }
        },
        "checklists": {
          "perCard": {
            "status": "ok",
            "disableAt": 500,
            "warnAt": 400
          }
        },
        "stickers": {
          "perCard": {
            "status": "ok",
            "disableAt": 70,
            "warnAt": 56
          }
        }
      },
      "locationName": null,
      "manualCoverAttachment": false,
      "name": "Interactive User Guide",
      "nodeId": "ari:cloud:trello::card/workspace/6632170df3d5a577d8516288/66380e0793c3002187b96cff",
      "pos": 327682,
      "shortLink": "slaFdGYz",
      "shortUrl": "https://trello.com/c/slaFdGYz",
      "staticMapUrl": null,
      "start": null,
      "subscribed": false,
      "url": "https://trello.com/c/slaFdGYz/7-interactive-user-guide",
      "cover": {
        "idAttachment": null,
        "color": null,
        "idUploadedBackground": null,
        "size": "normal",
        "brightness": "dark",
        "idPlugin": null
      },
      "isTemplate": false,
      "cardRole": null,
      "attachments": [],
      "pluginData": [],
      "customFieldItems": []
    },
    {
      "id": "66380e0d1f7dd54fffebcc0b",
      "address": null,
      "badges": {
        "attachmentsByType": {
          "trello": {
            "board": 0,
            "card": 0
          }
        },
        "location": false,
        "votes": 0,
        "viewingMemberVoted": false,
        "subscribed": false,
        "fogbugz": "",
        "checkItems": 0,
        "checkItemsChecked": 0,
        "checkItemsEarliestDue": null,
        "comments": 0,
        "attachments": 0,
        "description": true,
        "due": null,
        "dueComplete": false,
        "start": null
      },
      "checkItemStates": [],
      "closed": false,
      "coordinates": null,
      "creationMethod": null,
      "dueComplete": false,
      "dateLastActivity": "2024-05-05T22:55:00.904Z",
      "desc": "The system uses the two-stage billing, where we charge the user for membership and bill them for the used tokens by their agents. Through usability testing, Jozef had an interesting question and suggestion regarding post-use billing. He mentioned that a pre-pay method, maybe in the form of credits, would be a safer option which could not be exploited later on and could be easier from a legal standpoint too.\nI appreciated the constructive criticism and found the idea interesting and beneficial, however, thorough analysis must be performed before judgment. From a technical perspective, minor changes would be required, since the system tracks the used tokens it may be used as a wallet which tracks the leftover tokens after each use, and the number doesn't reset when the bill is paid but the user needs to buy the tokens beforehand.",
      "descData": {
        "emoji": {

        }
      },
      "due": null,
      "dueReminder": null,
      "email": "molnarbenedek+32e1dr1a7l2rt752u9k+32ey08fmgjzma3yu0i3+0oglkhcviw@boards.trello.com",
      "idBoard": "6632170d6933fba273515801",
      "idChecklists": [],
      "idLabels": [],
      "idList": "6632170e01706c19228fa799",
      "idMembers": [],
      "idMembersVoted": [],
      "idOrganization": "6632170df3d5a577d8516288",
      "idShort": 8,
      "idAttachmentCover": null,
      "labels": [],
      "limits": {
        "attachments": {
          "perCard": {
            "status": "ok",
            "disableAt": 1000,
            "warnAt": 800
          }
        },
        "checklists": {
          "perCard": {
            "status": "ok",
            "disableAt": 500,
            "warnAt": 400
          }
        },
        "stickers": {
          "perCard": {
            "status": "ok",
            "disableAt": 70,
            "warnAt": 56
          }
        }
      },
      "locationName": null,
      "manualCoverAttachment": false,
      "name": "Credit System",
      "nodeId": "ari:cloud:trello::card/workspace/6632170df3d5a577d8516288/66380e0d1f7dd54fffebcc0b",
      "pos": 393218,
      "shortLink": "6erLW9uL",
      "shortUrl": "https://trello.com/c/6erLW9uL",
      "staticMapUrl": null,
      "start": null,
      "subscribed": false,
      "url": "https://trello.com/c/6erLW9uL/8-credit-system",
      "cover": {
        "idAttachment": null,
        "color": null,
        "idUploadedBackground": null,
        "size": "normal",
        "brightness": "dark",
        "idPlugin": null
      },
      "isTemplate": false,
      "cardRole": null,
      "attachments": [],
      "pluginData": [],
      "customFieldItems": []
    },
    {
      "id": "66380e0f7fef8efc4acbb5c2",
      "address": null,
      "badges": {
        "attachmentsByType": {
          "trello": {
            "board": 0,
            "card": 0
          }
        },
        "location": false,
        "votes": 0,
        "viewingMemberVoted": false,
        "subscribed": false,
        "fogbugz": "",
        "checkItems": 0,
        "checkItemsChecked": 0,
        "checkItemsEarliestDue": null,
        "comments": 0,
        "attachments": 0,
        "description": true,
        "due": null,
        "dueComplete": false,
        "start": null
      },
      "checkItemStates": [],
      "closed": false,
      "coordinates": null,
      "creationMethod": null,
      "dueComplete": false,
      "dateLastActivity": "2024-05-05T22:54:31.387Z",
      "desc": "The agents provide live interaction with the user, however, sometimes the niche of the business doesn't validate the use of such a tool. This means users either get in touch via phone or via email. However, the initial contact and frequently asked questions remain the same, similarly to the live interaction.\nWhat if our agents could respond to email conversations? By creating a contact form component connected to the agent system, the agents may be able to fetch the emails, evaluate, and reply to the emails accordingly via email obviously. This way it would have the same benefits as a live interaction, however, the effect would increase even more due to the new connected platform. It would make the human workforce stress less, who would be able to focus their power on more important tasks or more progressed clients.\n Thanks to the system's modularity, only a few changes would need to be made to activate such a function, however, thorough testing would need to be realized, due to the fact that there is no live feedback in case anything goes wrong, which would imply lost messages or lost answers.",
      "descData": {
        "emoji": {

        }
      },
      "due": null,
      "dueReminder": null,
      "email": "molnarbenedek+32e1dr1a7l2rt752u9k+32ey08ovk3zybdt1cci+0egstgocfe@boards.trello.com",
      "idBoard": "6632170d6933fba273515801",
      "idChecklists": [],
      "idLabels": [],
      "idList": "6632170e01706c19228fa799",
      "idMembers": [],
      "idMembersVoted": [],
      "idOrganization": "6632170df3d5a577d8516288",
      "idShort": 9,
      "idAttachmentCover": null,
      "labels": [],
      "limits": {
        "attachments": {
          "perCard": {
            "status": "ok",
            "disableAt": 1000,
            "warnAt": 800
          }
        },
        "checklists": {
          "perCard": {
            "status": "ok",
            "disableAt": 500,
            "warnAt": 400
          }
        },
        "stickers": {
          "perCard": {
            "status": "ok",
            "disableAt": 70,
            "warnAt": 56
          }
        }
      },
      "locationName": null,
      "manualCoverAttachment": false,
      "name": "Initial Contact Through Forms",
      "nodeId": "ari:cloud:trello::card/workspace/6632170df3d5a577d8516288/66380e0f7fef8efc4acbb5c2",
      "pos": 458754,
      "shortLink": "IDvS17NC",
      "shortUrl": "https://trello.com/c/IDvS17NC",
      "staticMapUrl": null,
      "start": null,
      "subscribed": false,
      "url": "https://trello.com/c/IDvS17NC/9-initial-contact-through-forms",
      "cover": {
        "idAttachment": null,
        "color": null,
        "idUploadedBackground": null,
        "size": "normal",
        "brightness": "dark",
        "idPlugin": null
      },
      "isTemplate": false,
      "cardRole": null,
      "attachments": [],
      "pluginData": [],
      "customFieldItems": []
    },
    {
      "id": "66380df3d4cb9e1cbf2378e1",
      "address": null,
      "badges": {
        "attachmentsByType": {
          "trello": {
            "board": 0,
            "card": 0
          }
        },
        "location": false,
        "votes": 0,
        "viewingMemberVoted": false,
        "subscribed": false,
        "fogbugz": "",
        "checkItems": 0,
        "checkItemsChecked": 0,
        "checkItemsEarliestDue": null,
        "comments": 0,
        "attachments": 0,
        "description": true,
        "due": null,
        "dueComplete": false,
        "start": null
      },
      "checkItemStates": [],
      "closed": false,
      "coordinates": null,
      "creationMethod": null,
      "dueComplete": false,
      "dateLastActivity": "2024-05-05T22:57:34.826Z",
      "desc": "The current propagation page was part of testing the concept of the application. The highlight was on presenting some of the features, but most importantly on the integrated sales agent. Since the focus was on the integrated agent and testing the concept of the project, the propagation page didn't receive as much attention as a professional landing page should get for a business software.\nThe landing page features a top-down funnel presenting some of the key features of the application, with an option to contact us at the end of the infinite scroll page. The new design should include a call to action at the end with a connection to the application, including information about the prices and membership. The page itself should branch to different sub-branches further specifying specific uses of the application for specific needs based on the industry of the visitor.",
      "descData": {
        "emoji": {

        }
      },
      "due": null,
      "dueReminder": null,
      "email": "molnarbenedek+32e1dr1a7l2rt752u9k+32ey05p5tnrdz9vdq75+0hu82okriv@boards.trello.com",
      "idBoard": "6632170d6933fba273515801",
      "idChecklists": [],
      "idLabels": [],
      "idList": "6632170e01706c19228fa799",
      "idMembers": [],
      "idMembersVoted": [],
      "idOrganization": "6632170df3d5a577d8516288",
      "idShort": 5,
      "idAttachmentCover": null,
      "labels": [],
      "limits": {
        "attachments": {
          "perCard": {
            "status": "ok",
            "disableAt": 1000,
            "warnAt": 800
          }
        },
        "checklists": {
          "perCard": {
            "status": "ok",
            "disableAt": 500,
            "warnAt": 400
          }
        },
        "stickers": {
          "perCard": {
            "status": "ok",
            "disableAt": 70,
            "warnAt": 56
          }
        }
      },
      "locationName": null,
      "manualCoverAttachment": false,
      "name": "Re-design Propagation Page Funnel",
      "nodeId": "ari:cloud:trello::card/workspace/6632170df3d5a577d8516288/66380df3d4cb9e1cbf2378e1",
      "pos": 524290,
      "shortLink": "vjxBqhBP",
      "shortUrl": "https://trello.com/c/vjxBqhBP",
      "staticMapUrl": null,
      "start": null,
      "subscribed": false,
      "url": "https://trello.com/c/vjxBqhBP/5-re-design-propagation-page-funnel",
      "cover": {
        "idAttachment": null,
        "color": null,
        "idUploadedBackground": null,
        "size": "normal",
        "brightness": "dark",
        "idPlugin": null
      },
      "isTemplate": false,
      "cardRole": null,
      "attachments": [],
      "pluginData": [],
      "customFieldItems": []
    }
  ],
  "labels": [
    {
      "id": "6632170d1dc51400eb9d417d",
      "idBoard": "6632170d6933fba273515801",
      "name": "",
      "color": "red",
      "uses": 3
    },
    {
      "id": "6632170d1dc51400eb9d4172",
      "idBoard": "6632170d6933fba273515801",
      "name": "",
      "color": "blue",
      "uses": 0
    },
    {
      "id": "6632170d1dc51400eb9d4177",
      "idBoard": "6632170d6933fba273515801",
      "name": "",
      "color": "green",
      "uses": 0
    },
    {
      "id": "6632170d1dc51400eb9d4179",
      "idBoard": "6632170d6933fba273515801",
      "name": "",
      "color": "orange",
      "uses": 0
    },
    {
      "id": "6632170d1dc51400eb9d4178",
      "idBoard": "6632170d6933fba273515801",
      "name": "",
      "color": "purple",
      "uses": 0
    },
    {
      "id": "6632170d1dc51400eb9d416f",
      "idBoard": "6632170d6933fba273515801",
      "name": "",
      "color": "yellow",
      "uses": 0
    }
  ],
  "lists": [
    {
      "id": "6632170e01706c19228fa799",
      "name": "To do",
      "closed": false,
      "color": null,
      "idBoard": "6632170d6933fba273515801",
      "pos": 1,
      "subscribed": false,
      "softLimit": null,
      "creationMethod": null,
      "idOrganization": "6632170df3d5a577d8516288",
      "limits": {
        "cards": {
          "openPerList": {
            "status": "ok",
            "disableAt": 5000,
            "warnAt": 4000
          },
          "totalPerList": {
            "status": "ok",
            "disableAt": 1000000,
            "warnAt": 800000
          }
        }
      },
      "nodeId": "ari:cloud:trello::list/workspace/6632170df3d5a577d8516288/6632170e01706c19228fa799"
    },
    {
      "id": "6632170e0a1056ae90bf1b7f",
      "name": "Doing",
      "closed": false,
      "color": null,
      "idBoard": "6632170d6933fba273515801",
      "pos": 2,
      "subscribed": false,
      "softLimit": null,
      "creationMethod": null,
      "idOrganization": "6632170df3d5a577d8516288",
      "limits": {
        "cards": {
          "openPerList": {
            "status": "ok",
            "disableAt": 5000,
            "warnAt": 4000
          },
          "totalPerList": {
            "status": "ok",
            "disableAt": 1000000,
            "warnAt": 800000
          }
        }
      },
      "nodeId": "ari:cloud:trello::list/workspace/6632170df3d5a577d8516288/6632170e0a1056ae90bf1b7f"
    },
    {
      "id": "6632170e9781b18fe7d9c6fe",
      "name": "Done",
      "closed": false,
      "color": null,
      "idBoard": "6632170d6933fba273515801",
      "pos": 3,
      "subscribed": false,
      "softLimit": null,
      "creationMethod": null,
      "idOrganization": "6632170df3d5a577d8516288",
      "limits": {
        "cards": {
          "openPerList": {
            "status": "ok",
            "disableAt": 5000,
            "warnAt": 4000
          },
          "totalPerList": {
            "status": "ok",
            "disableAt": 1000000,
            "warnAt": 800000
          }
        }
      },
      "nodeId": "ari:cloud:trello::list/workspace/6632170df3d5a577d8516288/6632170e9781b18fe7d9c6fe"
    }
  ],
  "members": [
    {
      "id": "663216c24ae102cc533836b8",
      "aaId": "712020:b0813c7b-2486-4d24-a268-ba05659c06fd",
      "activityBlocked": false,
      "avatarHash": "c2e6da7b85b749b6e0d4257b1f86d935",
      "avatarUrl": "https://trello-members.s3.amazonaws.com/663216c24ae102cc533836b8/c2e6da7b85b749b6e0d4257b1f86d935",
      "bio": "",
      "bioData": null,
      "confirmed": false,
      "fullName": "molnar.benedek01",
      "idEnterprise": null,
      "idEnterprisesDeactivated": [],
      "idMemberReferrer": null,
      "idPremOrgsAdmin": [],
      "initials": "M",
      "memberType": "normal",
      "nonPublic": {
        "fullName": "molnar.benedek01",
        "initials": "M",
        "avatarHash": null
      },
      "nonPublicAvailable": true,
      "products": [],
      "url": "https://trello.com/molnarbenedek01",
      "username": "molnarbenedek01",
      "status": "disconnected"
    }
  ],
  "checklists": [],
  "customFields": [],
  "memberships": [
    {
      "id": "6632170d6933fba27351580b",
      "idMember": "663216c24ae102cc533836b8",
      "memberType": "admin",
      "unconfirmed": false,
      "deactivated": false
    }
  ],
  "pluginData": []
}